<?xml version="1.0" encoding="utf-8"?>
<!-- Generator: Adobe Illustrator 16.0.4, SVG Export Plug-In . SVG Version: 6.00 Build 0)  -->
<!DOCTYPE svg PUBLIC "-//W3C//DTD SVG 1.1//EN" "http://www.w3.org/Graphics/SVG/1.1/DTD/svg11.dtd">
<svg version="1.1" id="Layer_1" xmlns="http://www.w3.org/2000/svg" xmlns:xlink="http://www.w3.org/1999/xlink" x="0px" y="0px"
	 width="67.467px" height="24px" viewBox="884 1012 67.467 24" enable-background="new 884 1012 67.467 24" xml:space="preserve">
<g>
	<path fill="#FFFFFF" d="M890.857,1029.571v2.571c0,0.357-0.125,0.661-0.375,0.911s-0.553,0.375-0.91,0.375h-4.285
		c-0.357,0-0.661-0.125-0.911-0.375S884,1032.5,884,1032.143v-2.571c0-0.356,0.125-0.66,0.375-0.91s0.554-0.375,0.911-0.375h4.285
		c0.357,0,0.66,0.125,0.91,0.375S890.857,1029.215,890.857,1029.571z M890.857,1022.715v2.571c0,0.356-0.125,0.66-0.375,0.91
		s-0.553,0.375-0.91,0.375h-4.285c-0.357,0-0.661-0.125-0.911-0.375s-0.375-0.554-0.375-0.91v-2.571
		c0-0.357,0.125-0.661,0.375-0.911s0.554-0.375,0.911-0.375h4.285c0.357,0,0.66,0.125,0.91,0.375S890.857,1022.357,890.857,1022.715
		z M908,1029.571v2.571c0,0.357-0.125,0.661-0.375,0.911s-0.554,0.375-0.91,0.375h-12.858c-0.356,0-0.66-0.125-0.91-0.375
		s-0.375-0.554-0.375-0.911v-2.571c0-0.356,0.125-0.66,0.375-0.91s0.554-0.375,0.91-0.375h12.858c0.356,0,0.66,0.125,0.91,0.375
		S908,1029.215,908,1029.571z M890.857,1015.857v2.571c0,0.357-0.125,0.661-0.375,0.911s-0.553,0.375-0.91,0.375h-4.285
		c-0.357,0-0.661-0.125-0.911-0.375s-0.375-0.554-0.375-0.911v-2.571c0-0.357,0.125-0.661,0.375-0.911s0.554-0.375,0.911-0.375
		h4.285c0.357,0,0.66,0.125,0.91,0.375S890.857,1015.5,890.857,1015.857z M908,1022.715v2.571c0,0.356-0.125,0.66-0.375,0.91
		s-0.554,0.375-0.91,0.375h-12.858c-0.356,0-0.66-0.125-0.91-0.375s-0.375-0.554-0.375-0.91v-2.571c0-0.357,0.125-0.661,0.375-0.911
		s0.554-0.375,0.91-0.375h12.858c0.356,0,0.66,0.125,0.91,0.375S908,1022.357,908,1022.715z M908,1015.857v2.571
		c0,0.357-0.125,0.661-0.375,0.911s-0.554,0.375-0.91,0.375h-12.858c-0.356,0-0.66-0.125-0.91-0.375s-0.375-0.554-0.375-0.911
		v-2.571c0-0.357,0.125-0.661,0.375-0.911s0.554-0.375,0.91-0.375h12.858c0.356,0,0.66,0.125,0.91,0.375S908,1015.5,908,1015.857z"
		/>
</g>
<g>
	<path fill="#DCDCDC" d="M924.857,1029.571v2.571c0,0.357-0.125,0.661-0.375,0.911s-0.553,0.375-0.91,0.375h-4.285
		c-0.357,0-0.661-0.125-0.911-0.375S918,1032.5,918,1032.143v-2.571c0-0.356,0.125-0.66,0.375-0.91s0.554-0.375,0.911-0.375h4.285
		c0.357,0,0.66,0.125,0.91,0.375S924.857,1029.215,924.857,1029.571z M924.857,1022.715v2.571c0,0.356-0.125,0.66-0.375,0.91
		s-0.553,0.375-0.91,0.375h-4.285c-0.357,0-0.661-0.125-0.911-0.375s-0.375-0.554-0.375-0.91v-2.571
		c0-0.357,0.125-0.661,0.375-0.911s0.554-0.375,0.911-0.375h4.285c0.357,0,0.66,0.125,0.91,0.375S924.857,1022.357,924.857,1022.715
		z M942,1029.571v2.571c0,0.357-0.125,0.661-0.375,0.911s-0.554,0.375-0.91,0.375h-12.858c-0.356,0-0.66-0.125-0.91-0.375
		s-0.375-0.554-0.375-0.911v-2.571c0-0.356,0.125-0.66,0.375-0.91s0.554-0.375,0.91-0.375h12.858c0.356,0,0.66,0.125,0.91,0.375
		S942,1029.215,942,1029.571z M924.857,1015.857v2.571c0,0.357-0.125,0.661-0.375,0.911s-0.553,0.375-0.91,0.375h-4.285
		c-0.357,0-0.661-0.125-0.911-0.375s-0.375-0.554-0.375-0.911v-2.571c0-0.357,0.125-0.661,0.375-0.911s0.554-0.375,0.911-0.375
		h4.285c0.357,0,0.66,0.125,0.91,0.375S924.857,1015.5,924.857,1015.857z M942,1022.715v2.571c0,0.356-0.125,0.66-0.375,0.91
		s-0.554,0.375-0.91,0.375h-12.858c-0.356,0-0.66-0.125-0.91-0.375s-0.375-0.554-0.375-0.91v-2.571c0-0.357,0.125-0.661,0.375-0.911
		s0.554-0.375,0.91-0.375h12.858c0.356,0,0.66,0.125,0.91,0.375S942,1022.357,942,1022.715z M942,1015.857v2.571
		c0,0.357-0.125,0.661-0.375,0.911s-0.554,0.375-0.91,0.375h-12.858c-0.356,0-0.66-0.125-0.91-0.375s-0.375-0.554-0.375-0.911
		v-2.571c0-0.357,0.125-0.661,0.375-0.911s0.554-0.375,0.91-0.375h12.858c0.356,0,0.66,0.125,0.91,0.375S942,1015.5,942,1015.857z"
		/>
</g>
</svg>
