<?xml version="1.0" encoding="utf-8"?>
<!-- Generator: Adobe Illustrator 16.0.4, SVG Export Plug-In . SVG Version: 6.00 Build 0)  -->
<!DOCTYPE svg PUBLIC "-//W3C//DTD SVG 1.1//EN" "http://www.w3.org/Graphics/SVG/1.1/DTD/svg11.dtd">
<svg version="1.1" id="Layer_1" xmlns="http://www.w3.org/2000/svg" xmlns:xlink="http://www.w3.org/1999/xlink" x="0px" y="0px"
	 width="102px" height="66px" viewBox="0 0 102 66" enable-background="new 0 0 102 66" xml:space="preserve">
<g id="Layer_2" display="none">
	<rect x="-83.5" y="-70.066" display="inline" fill="#ED0606" width="327" height="168"/>
</g>
<g id="Layer_1_1_">
	<g>
		<g>
			<path d="M67.039,45.868c0,6.766-3.658,9.434-9.566,9.434H37.947c-0.393,0-0.528-0.205-0.528-0.534V13.524
				c0-0.396,0.194-0.544,0.528-0.544h19.524c5.91,0,9.568,2.729,9.568,9.51V45.868L67.039,45.868z M57.748,22.489
				c0-1.071-0.602-1.596-1.541-1.596h-9.555v26.488h9.555c0.939,0,1.541-0.453,1.541-1.584V22.489z"/>
			<path d="M100.486,47.093c0.387,0,0.514,0.197,0.514,0.543v7.132c0,0.396-0.197,0.534-0.514,0.534H73.926
				c-0.393,0-0.523-0.205-0.523-0.534V13.36c0-0.396,0.191-0.54,0.523-0.54h8.205c0.4,0,0.539,0.198,0.539,0.54v33.732H100.486z"/>
			<g>
				<g>
					<g>
						<path id="SVGID_1_" d="M10.384,37.608h9.65c0.963,0,1.604,0.59,1.604,1.604v6.674c0,1.164-0.642,1.601-1.604,1.601h-9.65
							V37.608L10.384,37.608z M10.384,20.799h9.65c0.963,0,1.604,0.43,1.604,1.602v6.139c0,1.174-0.532,1.604-1.553,1.604h-9.703
							L10.384,20.799L10.384,20.799z M1.535,55.49h19.84c5.952,0,9.649-2.722,9.649-9.604v-4.541c0-3.999-0.805-6.135-4.558-7.471
							c3.647-1.069,4.558-3.15,4.558-7.312v-4.163c0-6.889-3.697-9.607-9.649-9.607H1.535C1.209,12.792,1,12.955,1,13.325V54.96
							C1,55.279,1.159,55.49,1.535,55.49L1.535,55.49z"/>
					</g>
					<g>
						<defs>
							<path id="SVGID_2_" d="M10.384,37.608h9.65c0.963,0,1.604,0.59,1.604,1.604v6.674c0,1.164-0.642,1.601-1.604,1.601h-9.65
								V37.608L10.384,37.608z M10.384,20.799h9.65c0.963,0,1.604,0.43,1.604,1.602v6.139c0,1.174-0.532,1.604-1.553,1.604h-9.703
								L10.384,20.799L10.384,20.799z M1.535,55.49h19.84c5.952,0,9.649-2.722,9.649-9.604v-4.541c0-3.999-0.805-6.135-4.558-7.471
								c3.647-1.069,4.558-3.15,4.558-7.312v-4.163c0-6.889-3.697-9.607-9.649-9.607H1.535C1.209,12.792,1,12.955,1,13.325V54.96
								C1,55.279,1.159,55.49,1.535,55.49L1.535,55.49z"/>
						</defs>
						<use xlink:href="#SVGID_2_"  overflow="visible"/>
						<clipPath id="SVGID_3_">
							<use xlink:href="#SVGID_2_"  overflow="visible"/>
						</clipPath>
						<g clip-path="url(#SVGID_3_)">
							<g>
								<rect id="SVGID_4_" x="1" y="12.792" width="30.027" height="42.698"/>
							</g>
						</g>
					</g>
				</g>
				<path d="M1.544,7.877h27.797c0.305,0,0.52-0.213,0.52-0.557V3.256V3.254c0-0.021,0-0.021,0-0.038c0-1.331-1.049-2.42-2.334-2.42
					H3.348c-1.286,0-2.328,1.089-2.328,2.418c0,0,0,0.019,0,0.027v0.015V7.32C1.021,7.687,1.254,7.877,1.544,7.877L1.544,7.877z"/>
			</g>
		</g>
		<g>
			<path d="M4.124,59.585c0.76,0,1.239,0.355,1.239,1.239v0.535c0,0.544-0.115,0.812-0.584,0.954
				c0.478,0.163,0.584,0.438,0.584,0.957v0.593c0,0.88-0.479,1.235-1.239,1.235H1.568c-0.04,0-0.069-0.022-0.069-0.067v-5.376
				c0-0.054,0.037-0.07,0.069-0.07H4.124z M4.156,60.824c0-0.147-0.086-0.208-0.207-0.208H2.71v1.21h1.246
				c0.133,0,0.199-0.062,0.199-0.204V60.824z M4.156,62.995c0-0.128-0.086-0.208-0.207-0.208H2.71v1.284h1.238
				c0.121,0,0.207-0.062,0.207-0.208V62.995z"/>
			<path d="M10.289,65.038c0,0.045-0.045,0.061-0.079,0.061H9.177c-0.102,0-0.136,0-0.171-0.103l-0.625-1.827H7.517v1.862
				c0,0.052-0.027,0.067-0.068,0.067H6.383c-0.051,0-0.069-0.022-0.069-0.067v-5.376c0-0.054,0.024-0.07,0.069-0.07h2.544
				c0.754,0,1.247,0.327,1.247,1.17v1.041c0,0.731-0.192,1.012-0.666,1.209l0.771,1.991C10.289,65.013,10.289,65.031,10.289,65.038z
				 M7.517,62.142h1.245c0.131,0,0.2-0.062,0.2-0.209v-1.107c0-0.146-0.069-0.208-0.2-0.208H7.517V62.142z"/>
			<path d="M14.652,59.585c0.051,0,0.067,0.026,0.067,0.07v0.9c0,0.041-0.017,0.061-0.067,0.061h-2.312v1.18h1.827
				c0.059,0,0.067,0.021,0.067,0.065v0.892c0,0.055-0.016,0.069-0.067,0.069h-1.827v1.214h2.312c0.051,0,0.067,0.025,0.067,0.07
				v0.925c0,0.052-0.017,0.067-0.067,0.067h-3.449c-0.051,0-0.068-0.022-0.068-0.067v-5.376c0-0.054,0.025-0.07,0.068-0.07H14.652z"
				/>
			<path d="M20.953,59.585c0.043,0,0.07,0.018,0.07,0.07v2.344c0,0.189-0.304,2.997-0.304,2.997
				c-0.019,0.087-0.069,0.103-0.12,0.103h-1.697c-0.061,0-0.095-0.016-0.123-0.103l-0.416-1.508h-0.109l-0.426,1.508
				c-0.019,0.087-0.053,0.103-0.112,0.103h-1.708c-0.04,0-0.102-0.016-0.109-0.103c0,0-0.306-2.808-0.306-2.997v-2.344
				c0-0.054,0.028-0.07,0.069-0.07h1.064c0.045,0,0.07,0.026,0.07,0.07v2.415l0.122,2.001h0.112l0.725-2.355
				c0-0.026,0.027-0.07,0.07-0.07h0.951c0.053,0,0.07,0.044,0.08,0.07l0.728,2.355h0.104l0.129-2.001v-2.415
				c0-0.044,0.018-0.07,0.07-0.07H20.953z"/>
			<path d="M25.5,59.585c0.051,0,0.069,0.026,0.069,0.07v0.9c0,0.041-0.019,0.061-0.069,0.061h-2.312v1.18h1.827
				c0.058,0,0.069,0.021,0.069,0.065v0.892c0,0.055-0.02,0.069-0.069,0.069h-1.827v1.214H25.5c0.051,0,0.069,0.025,0.069,0.07v0.925
				c0,0.052-0.019,0.067-0.069,0.067h-3.445c-0.051,0-0.069-0.022-0.069-0.067v-5.376c0-0.054,0.026-0.07,0.069-0.07H25.5z"/>
			<path d="M30.469,65.038c0,0.045-0.04,0.061-0.075,0.061h-1.031c-0.104,0-0.14,0-0.174-0.103l-0.625-1.827h-0.867v1.862
				c0,0.052-0.023,0.067-0.066,0.067h-1.066c-0.051,0-0.068-0.022-0.068-0.067v-5.376c0-0.054,0.027-0.07,0.068-0.07h2.547
				c0.754,0,1.244,0.327,1.244,1.17v1.041c0,0.731-0.187,1.012-0.664,1.209l0.771,1.991C30.469,65.013,30.469,65.031,30.469,65.038z
				 M27.699,62.142h1.248c0.129,0,0.199-0.062,0.199-0.209v-1.107c0-0.146-0.07-0.208-0.199-0.208h-1.248V62.142z"/>
			<path d="M33.804,61.898c1.047,0.353,1.385,0.682,1.385,1.692c0,1.152-0.658,1.613-1.725,1.613h-0.518
				c-1.076,0-1.723-0.461-1.723-1.613v-0.18c0-0.041,0.016-0.066,0.069-0.066h1.028c0.055,0,0.069,0.025,0.069,0.066v0.311
				c0,0.314,0.173,0.453,0.448,0.453h0.686c0.278,0,0.451-0.139,0.451-0.453v-0.137c0-0.32-0.14-0.478-0.451-0.59l-0.891-0.311
				c-0.979-0.34-1.361-0.659-1.378-1.592c0-1.082,0.642-1.61,1.724-1.61h0.45c1.05,0,1.724,0.448,1.724,1.575v0.111
				c0,0.043-0.024,0.067-0.069,0.067h-1.04c-0.042,0-0.067-0.024-0.067-0.067v-0.207c0-0.313-0.173-0.441-0.45-0.441h-0.613
				c-0.277,0-0.45,0.128-0.45,0.441v0.034c0,0.33,0.138,0.474,0.45,0.586L33.804,61.898z"/>
			<path d="M41.847,63.869c0,0.884-0.477,1.229-1.246,1.229h-2.547c-0.051,0-0.068-0.022-0.068-0.067v-5.376
				c0-0.054,0.025-0.07,0.068-0.07h2.547c0.771,0,1.246,0.355,1.246,1.239V63.869z M40.635,60.824c0-0.138-0.078-0.208-0.196-0.208
				h-1.248v3.455h1.248c0.118,0,0.196-0.062,0.196-0.208V60.824z"/>
			<path d="M43.91,59.585c0.041,0,0.068,0.018,0.068,0.07v5.376c0,0.045-0.019,0.067-0.068,0.067h-1.066
				c-0.052,0-0.07-0.022-0.07-0.067v-5.376c0-0.054,0.026-0.07,0.07-0.07H43.91z"/>
			<path d="M47.484,61.898c1.047,0.353,1.385,0.682,1.385,1.692c0,1.152-0.655,1.613-1.721,1.613h-0.521
				c-1.074,0-1.726-0.461-1.726-1.613v-0.18c0-0.041,0.019-0.066,0.071-0.066h1.03c0.05,0,0.068,0.025,0.068,0.066v0.311
				c0,0.314,0.174,0.453,0.449,0.453h0.684c0.277,0,0.453-0.139,0.453-0.453v-0.137c0-0.32-0.141-0.478-0.453-0.59l-0.891-0.311
				c-0.979-0.34-1.359-0.659-1.377-1.592c0-1.082,0.641-1.61,1.723-1.61h0.449c1.049,0,1.726,0.448,1.726,1.575v0.111
				c0,0.043-0.026,0.067-0.069,0.067h-1.04c-0.042,0-0.067-0.024-0.067-0.067v-0.207c0-0.313-0.174-0.441-0.451-0.441h-0.614
				c-0.276,0-0.451,0.128-0.451,0.441v0.034c0,0.33,0.142,0.474,0.451,0.586L47.484,61.898z"/>
			<path d="M53.295,59.585c0.051,0,0.066,0.026,0.066,0.07v0.936c0,0.041-0.025,0.059-0.066,0.059h-1.273v4.383
				c0,0.053-0.023,0.066-0.072,0.066h-1.062c-0.053,0-0.067-0.021-0.067-0.066v-4.383h-1.281c-0.045,0-0.069-0.025-0.069-0.059
				v-0.936c0-0.054,0.024-0.07,0.069-0.07H53.295z"/>
			<path d="M58.037,65.038c0,0.045-0.043,0.061-0.074,0.061h-1.031c-0.104,0-0.141,0-0.178-0.103l-0.621-1.827h-0.865v1.862
				c0,0.052-0.027,0.067-0.07,0.067h-1.064c-0.051,0-0.066-0.022-0.066-0.067v-5.376c0-0.054,0.025-0.07,0.066-0.07h2.547
				c0.752,0,1.246,0.327,1.246,1.17v1.041c0,0.731-0.188,1.012-0.668,1.209l0.771,1.991C58.037,65.013,58.037,65.031,58.037,65.038z
				 M55.268,62.142h1.248c0.125,0,0.197-0.062,0.197-0.209v-1.107c0-0.146-0.072-0.208-0.197-0.208h-1.248V62.142z"/>
			<path d="M60.023,59.585c0.039,0,0.068,0.018,0.068,0.07v5.376c0,0.045-0.02,0.067-0.068,0.067h-1.066
				c-0.049,0-0.068-0.022-0.068-0.067v-5.376c0-0.054,0.023-0.07,0.068-0.07H60.023z"/>
			<path d="M63.717,59.585c0.764,0,1.24,0.355,1.24,1.239v0.535c0,0.544-0.113,0.812-0.582,0.954
				c0.477,0.163,0.582,0.438,0.582,0.957v0.593c0,0.88-0.479,1.235-1.24,1.235h-2.551c-0.043,0-0.07-0.022-0.07-0.067v-5.376
				c0-0.054,0.035-0.07,0.07-0.07H63.717z M63.752,60.824c0-0.147-0.088-0.208-0.207-0.208h-1.236v1.21h1.246
				c0.133,0,0.197-0.062,0.197-0.204V60.824z M63.752,62.995c0-0.128-0.088-0.208-0.207-0.208h-1.236v1.284h1.236
				c0.119,0,0.207-0.062,0.207-0.208V62.995z"/>
			<path d="M69.762,63.591c0,1.138-0.656,1.586-1.723,1.586H67.59c-1.064,0-1.725-0.459-1.725-1.617v-3.903
				c0-0.044,0.025-0.069,0.068-0.069h1.072c0.053,0,0.062,0.025,0.062,0.069v4.041c0,0.313,0.184,0.442,0.449,0.442h0.59
				c0.275,0,0.449-0.129,0.449-0.442v-4.041c0-0.044,0.018-0.069,0.068-0.069h1.066c0.053,0,0.068,0.025,0.068,0.069v3.935H69.762z"
				/>
			<path d="M74.246,59.585c0.055,0,0.068,0.026,0.068,0.07v0.936c0,0.041-0.025,0.059-0.068,0.059h-1.271v4.383
				c0,0.053-0.029,0.066-0.068,0.066H71.84c-0.051,0-0.07-0.021-0.07-0.066v-4.383H70.49c-0.045,0-0.068-0.025-0.068-0.059v-0.936
				c0-0.054,0.023-0.07,0.068-0.07H74.246z"/>
			<path d="M78.834,63.716c0,1.066-0.684,1.479-1.713,1.479h-0.453c-1.027,0-1.721-0.413-1.721-1.479v-2.621
				c0-1.092,0.648-1.611,1.721-1.611h0.453c1.055,0,1.721,0.447,1.721,1.585L78.834,63.716z M77.631,60.962
				c0-0.312-0.174-0.44-0.439-0.44h-0.588c-0.279,0-0.453,0.128-0.453,0.44v2.754c0,0.32,0.174,0.448,0.453,0.448h0.588
				c0.268,0,0.439-0.128,0.439-0.448V60.962z"/>
			<path d="M83.771,65.038c0,0.045-0.047,0.061-0.078,0.061H82.66c-0.104,0-0.137,0-0.17-0.103l-0.625-1.827H81v1.862
				c0,0.052-0.027,0.067-0.068,0.067h-1.066c-0.049,0-0.068-0.022-0.068-0.067v-5.376c0-0.054,0.027-0.07,0.068-0.07h2.549
				c0.752,0,1.244,0.327,1.244,1.17v1.041c0,0.731-0.191,1.012-0.666,1.209l0.771,1.991C83.771,65.013,83.771,65.031,83.771,65.038z
				 M81,62.142h1.244c0.133,0,0.199-0.062,0.199-0.209v-1.107c0-0.146-0.066-0.208-0.199-0.208H81V62.142z"/>
			<path d="M90.012,64.036c0.053,0,0.07,0.025,0.07,0.07v0.925c0,0.052-0.025,0.067-0.07,0.067h-3.445
				c-0.051,0-0.066-0.022-0.066-0.067v-5.376c0-0.054,0.027-0.07,0.066-0.07h1.064c0.057,0,0.072,0.026,0.072,0.07v4.381H90.012z"/>
			<path d="M94.307,59.585c0.053,0,0.068,0.026,0.068,0.07v0.936c0,0.041-0.023,0.059-0.068,0.059h-1.271v4.383
				c0,0.053-0.027,0.066-0.072,0.066H91.9c-0.053,0-0.068-0.021-0.068-0.066v-4.383h-1.281c-0.043,0-0.066-0.025-0.066-0.059v-0.936
				c0-0.054,0.023-0.07,0.066-0.07H94.307z"/>
			<path d="M98.939,63.869c0,0.884-0.473,1.229-1.244,1.229h-2.547c-0.053,0-0.068-0.022-0.068-0.067v-5.376
				c0-0.054,0.025-0.07,0.068-0.07h2.547c0.771,0,1.244,0.355,1.244,1.239V63.869z M97.729,60.824c0-0.138-0.078-0.208-0.197-0.208
				h-1.248v3.455h1.248c0.119,0,0.197-0.062,0.197-0.208V60.824z"/>
			<path d="M100.932,63.837c0.053,0,0.068,0.026,0.068,0.059v1.137c0,0.053-0.025,0.066-0.068,0.066h-1.158
				c-0.055,0-0.072-0.021-0.072-0.066v-1.137c0-0.041,0.027-0.059,0.072-0.059H100.932z"/>
		</g>
	</g>
</g>
</svg>
