<?xml version="1.0" encoding="utf-8"?>
<!-- Generator: Adobe Illustrator 16.0.4, SVG Export Plug-In . SVG Version: 6.00 Build 0)  -->
<!DOCTYPE svg PUBLIC "-//W3C//DTD SVG 1.1//EN" "http://www.w3.org/Graphics/SVG/1.1/DTD/svg11.dtd">
<svg version="1.1" id="Layer_1" xmlns="http://www.w3.org/2000/svg" xmlns:xlink="http://www.w3.org/1999/xlink" x="0px" y="0px"
	 width="160px" height="28px" viewBox="0 -0.066 160 28" enable-background="new 0 -0.066 160 28" xml:space="preserve">
<g>
	<path d="M10.291,5.904c3.006,0,4.874,1.374,4.874,4.851v2.102c0,2.103-0.461,3.151-2.301,3.69c1.895,0.674,2.301,1.752,2.301,3.773
		v2.29c0,3.478-1.868,4.851-4.874,4.851H0.273c-0.19,0-0.271-0.107-0.271-0.27V6.173c0-0.188,0.109-0.27,0.271-0.27L10.291,5.904
		L10.291,5.904z M10.426,10.755c0-0.594-0.325-0.809-0.812-0.809H4.74v4.715h4.901c0.515,0,0.785-0.215,0.785-0.808V10.755z
		 M10.426,19.243c0-0.513-0.325-0.809-0.812-0.809H4.74v4.984h4.875c0.487,0,0.812-0.215,0.812-0.809L10.426,19.243L10.426,19.243z"
		/>
	<path d="M31.785,5.904c0.217,0,0.271,0.108,0.271,0.27v3.502c0,0.19-0.082,0.271-0.271,0.271h-9.07v4.581h7.174
		c0.217,0,0.271,0.107,0.271,0.27v3.502c0,0.189-0.081,0.271-0.271,0.271h-7.174v4.717h9.07c0.217,0,0.271,0.106,0.271,0.269v3.639
		c0,0.188-0.082,0.271-0.271,0.271H18.248c-0.19,0-0.271-0.108-0.271-0.271V6.173c0-0.188,0.108-0.27,0.271-0.27L31.785,5.904
		L31.785,5.904z"/>
	<path d="M48.683,5.904c0.216,0,0.271,0.108,0.271,0.27v3.502c0,0.19-0.081,0.271-0.271,0.271h-9.07v4.581h7.175
		c0.217,0,0.271,0.107,0.271,0.27v3.502c0,0.189-0.081,0.271-0.271,0.271h-7.175v4.717h9.07c0.216,0,0.271,0.106,0.271,0.269v3.639
		c0,0.188-0.081,0.271-0.271,0.271H35.145c-0.19,0-0.271-0.108-0.271-0.271V6.173c0-0.188,0.108-0.27,0.271-0.27L48.683,5.904
		L48.683,5.904z"/>
	<path d="M67.25,27.219c0,0.189-0.163,0.242-0.298,0.242h-4.034c-0.407,0-0.542,0-0.676-0.404l-2.465-7.141h-3.385v7.275
		c0,0.188-0.107,0.27-0.27,0.27h-4.197c-0.189,0-0.271-0.107-0.271-0.27V6.173c0-0.188,0.109-0.27,0.271-0.27h10.018
		c2.951,0,4.765,1.293,4.875,4.582v4.042c0,2.884-0.731,3.961-2.6,4.743l3.005,7.786C67.25,27.138,67.25,27.192,67.25,27.219z
		 M56.393,15.874h4.874c0.515,0,0.812-0.215,0.812-0.808v-4.312c0-0.594-0.297-0.809-0.812-0.809h-4.874V15.874z"/>
	<path d="M90.809,21.564c0,4.524-2.572,6.304-6.768,6.304h-2.029c-4.223,0-6.768-1.777-6.768-6.304v-0.7
		c0-0.162,0.081-0.27,0.271-0.27h4.06c0.189,0,0.27,0.107,0.27,0.27v1.211c0,1.239,0.676,1.752,1.76,1.752h2.705
		c1.058,0,1.76-0.513,1.76-1.752v-0.537c0-1.238-0.541-1.858-1.76-2.291l-3.519-1.211c-3.816-1.43-5.332-2.586-5.414-6.223
		c0-4.257,2.518-6.305,6.767-6.305h1.76c4.113,0,6.768,1.751,6.768,6.168v0.432c0,0.162-0.082,0.271-0.271,0.271h-4.062
		c-0.188,0-0.271-0.108-0.271-0.271V11.3c0-1.239-0.702-1.752-1.76-1.752h-2.436c-1.083,0-1.759,0.513-1.759,1.752v0.134
		c0,1.268,0.542,1.887,1.759,2.291l3.52,1.211C89.455,16.418,90.809,17.631,90.809,21.564z"/>
	<path d="M107.254,5.912c0.188,0,0.271,0.108,0.271,0.27V9.79c0,0.188-0.108,0.269-0.271,0.269h-5.008v17.139
		c0,0.188-0.107,0.268-0.271,0.268h-4.195c-0.189,0-0.271-0.107-0.271-0.268V10.059H92.5c-0.189,0-0.271-0.108-0.271-0.269V6.182
		c0-0.188,0.109-0.27,0.271-0.27H107.254z"/>
	<path d="M124.616,22.049c0,4.148-2.706,5.791-6.769,5.791h-1.758c-4.061,0-6.768-1.643-6.768-5.791V11.813
		c0-4.283,2.545-6.305,6.768-6.305h1.758c4.17,0,6.769,1.751,6.769,6.197V22.049z M119.879,11.301c0-1.213-0.703-1.752-1.758-1.752
		h-2.303c-1.082,0-1.76,0.539-1.76,1.752v10.749c0,1.238,0.678,1.752,1.76,1.752h2.303c1.055,0,1.758-0.514,1.758-1.752V11.301z"/>
	<path d="M143.396,27.221c0,0.189-0.162,0.244-0.299,0.244h-4.033c-0.405,0-0.539,0-0.676-0.405l-2.465-7.14h-3.383v7.275
		c0,0.188-0.107,0.27-0.271,0.27h-4.194c-0.188,0-0.271-0.108-0.271-0.27V6.182c0-0.188,0.107-0.27,0.271-0.27h10.016
		c2.95,0,4.763,1.294,4.872,4.579v4.041c0,2.885-0.73,3.961-2.6,4.742l3.006,7.785C143.396,27.142,143.396,27.196,143.396,27.221z
		 M132.541,15.879h4.874c0.515,0,0.812-0.215,0.812-0.807v-4.312c0-0.593-0.297-0.808-0.812-0.808h-4.874V15.879z"/>
	<path d="M159.729,5.912c0.217,0,0.271,0.108,0.271,0.27v3.502c0,0.19-0.081,0.271-0.271,0.271h-9.066v4.579h7.172
		c0.219,0,0.271,0.108,0.271,0.27v3.504c0,0.188-0.08,0.27-0.271,0.27h-7.172v4.713h9.066c0.217,0,0.271,0.107,0.271,0.27V27.2
		c0,0.188-0.081,0.268-0.271,0.268h-13.533c-0.189,0-0.271-0.107-0.271-0.268V6.182c0-0.188,0.108-0.27,0.271-0.27H159.729z"/>
	<path d="M0.261,3.387h13.957c0.151,0,0.257-0.1,0.257-0.266V1.179V1.176c0-0.009,0-0.009,0-0.017C14.475,0.52,13.955,0,13.314,0
		H1.16C0.52,0-0.001,0.52-0.001,1.157c0,0,0,0.01,0,0.015v0.007v1.942C-0.001,3.296,0.117,3.387,0.261,3.387z"/>
</g>
</svg>
