<?xml version="1.0" encoding="utf-8"?>
<!-- Generator: Adobe Illustrator 16.0.4, SVG Export Plug-In . SVG Version: 6.00 Build 0)  -->
<!DOCTYPE svg PUBLIC "-//W3C//DTD SVG 1.1//EN" "http://www.w3.org/Graphics/SVG/1.1/DTD/svg11.dtd">
<svg version="1.1" id="Layer_1" xmlns="http://www.w3.org/2000/svg" xmlns:xlink="http://www.w3.org/1999/xlink" x="0px" y="0px"
	 width="928.877px" height="256px" viewBox="0 0 928.877 256" enable-background="new 0 0 928.877 256" xml:space="preserve">
<g>
	<path fill-rule="evenodd" clip-rule="evenodd" fill="#F5F5F5" d="M26.298,133.798c0-73.475,208.051-132.252,464.052-132.252
		c30.938,0,60.326,0.774,89.717,2.319C542.943,1.546,504.27,0,464.051,0C208.05,0,0,57.232,0,128.388
		c0,34.795,51.819,67.281,136.121,90.488C67.29,195.669,26.298,166.281,26.298,133.798L26.298,133.798z"/>
	<path fill-rule="evenodd" clip-rule="evenodd" fill="#F5F5F5" d="M902.582,122.974c0,72.695-208.054,131.476-464.824,131.476
		c-30.164,0-60.333-0.774-88.944-2.313C385.936,254.45,424.609,256,464.051,256c256.776,0,464.826-57.233,464.826-127.612
		c0-35.578-51.819-68.064-136.122-91.265C861.587,60.324,902.582,90.492,902.582,122.974L902.582,122.974z"/>
	<path fill-rule="evenodd" clip-rule="evenodd" fill="#F5F5F5" d="M792.755,187.939l-328.704-44.854l-328.703,44.854
		c0,0,201.091-23.977,328.703-23.977C592.439,163.962,792.755,187.939,792.755,187.939L792.755,187.939z"/>
	<polygon fill-rule="evenodd" clip-rule="evenodd" fill="#F5F5F5" points="174.021,126.837 174.021,74.25 170.153,74.25 
		170.153,112.144 170.153,112.144 147.726,74.25 136.896,74.25 136.896,126.837 139.99,126.837 139.99,80.435 167.834,126.837 
		174.021,126.837 	"/>
	<polygon fill-rule="evenodd" clip-rule="evenodd" fill="#F5F5F5" points="250.589,126.837 233.569,73.472 228.161,73.472 
		210.372,126.837 214.239,126.837 227.386,87.396 240.534,126.837 250.589,126.837 	"/>
	<polygon fill-rule="evenodd" clip-rule="evenodd" fill="#F5F5F5" points="566.143,126.837 566.143,74.25 562.279,74.25 
		562.279,112.144 562.279,112.144 539.846,74.25 529.018,74.25 529.018,126.837 532.115,126.837 532.115,80.435 559.955,126.837 
		566.143,126.837 	"/>
	<polygon fill-rule="evenodd" clip-rule="evenodd" fill="#F5F5F5" points="492.67,126.837 475.654,73.472 470.242,73.472 
		452.451,126.837 456.32,126.837 469.465,87.396 482.615,126.837 492.67,126.837 	"/>
	<polygon fill-rule="evenodd" clip-rule="evenodd" fill="#F5F5F5" points="642.713,126.837 625.695,73.472 620.281,73.472 
		602.494,126.837 606.363,126.837 619.508,87.396 632.658,126.837 642.713,126.837 	"/>
	<polygon fill-rule="evenodd" clip-rule="evenodd" fill="#F5F5F5" points="791.981,126.837 774.972,73.472 769.556,73.472 
		751.765,126.837 755.628,126.837 768.778,87.396 781.927,126.837 791.981,126.837 	"/>
	<polygon fill-rule="evenodd" clip-rule="evenodd" fill="#F5F5F5" points="279.978,73.472 296.995,126.837 302.407,126.837 
		320.196,73.472 316.329,73.472 303.181,113.693 290.034,73.472 279.978,73.472 	"/>
	<path fill-rule="evenodd" clip-rule="evenodd" fill="#F5F5F5" d="M392.125,100.544c0,5.412,0.771,10.055,2.318,14.697v1.547
		c1.549,4.635,6.186,7.73,10.83,7.73c6.186,0,10.826-4.643,11.602-10.055h3.867c-0.773,7.734-6.959,13.924-15.469,13.924l0,0
		c-11.602,0-24.75-7.734-24.75-27.844c0-20.883,13.148-27.842,24.75-27.842c8.51,0,14.695,6.182,15.469,13.918h-3.867
		c-0.775-6.186-5.416-10.053-11.602-10.053c-4.645,0-9.281,3.094-10.83,7.732v1.549C392.896,89.716,392.125,95.13,392.125,100.544
		L392.125,100.544z"/>
	<path fill-rule="evenodd" clip-rule="evenodd" fill="#F5F5F5" d="M679.065,126.837h15.463c19.342,0,27.072-12.373,27.072-26.293
		c0-13.924-7.73-26.295-27.072-26.295h-15.463V126.837L679.065,126.837z M693.761,123.748h-4.641V77.341h4.641
		c10.055,0,17.014,6.186,17.014,23.203C710.774,117.558,703.815,123.748,693.761,123.748L693.761,123.748z"/>
</g>
</svg>
